<?xml version="1.0" encoding="UTF-8" standalone="no"?>
<!DOCTYPE svg PUBLIC "-//W3C//DTD SVG 1.1//EN" "http://www.w3.org/Graphics/SVG/1.1/DTD/svg11.dtd">
<svg width="100%" height="100%" viewBox="0 0 928 426" version="1.1" xmlns="http://www.w3.org/2000/svg" xmlns:xlink="http://www.w3.org/1999/xlink" xml:space="preserve" xmlns:serif="http://www.serif.com/" style="fill-rule:evenodd;clip-rule:evenodd;stroke-linecap:round;stroke-linejoin:round;stroke-miterlimit:1.5;">
    <g transform="matrix(1,0,0,1,-53.4484,-3507)">
        <g id="ArtBoard3" transform="matrix(3.08034,0,0,1.54124,356.901,-1899.05)">
            <rect x="-98.513" y="3507.6" width="301.12" height="276.127" style="fill:none;"/>
            <g transform="matrix(1.0323,0.428255,-0.112185,1.08018,410.96,-378.784)">
                <g transform="matrix(0.307918,0,0,0.588131,-99.4599,1445.03)">
                    <path d="M745.54,3775.04C743.779,3773.65 742.316,3770.22 741.312,3771.18C733.055,3779.1 727.422,3791.21 724.07,3806.96C740.942,3805.41 751.471,3798.88 760.815,3789.72C761.769,3788.78 757.012,3786.04 755.669,3784.28" style="fill:none;stroke:rgb(243,140,62);stroke-width:2px;"/>
                </g>
                <g transform="matrix(0.307918,0,0,0.588131,-99.4599,1445.03)">
                    <path d="M739.046,3767.58C737.85,3765.01 732.864,3755.49 731.569,3756.24C719.778,3763 714.083,3769.54 715.915,3780.48L724.277,3782.16C713.483,3792.18 697.307,3816.11 698.97,3836.15C722.497,3838.98 738.679,3821.26 756.259,3808L758.828,3814.85C770.163,3814.49 776.4,3809.02 780.045,3800.95C780.906,3799.04 769.579,3794.47 764.09,3791.73" style="fill:none;stroke:rgb(243,140,62);stroke-width:2px;"/>
                </g>
                <g transform="matrix(0.307918,0,0,0.588131,-99.4599,1445.03)">
                    <path d="M778.61,3750.85C751.946,3756.7 763.425,3756.39 739.046,3793.1C773.051,3763.78 775.541,3777.66 778.61,3750.85Z" style="fill:none;stroke:rgb(242,91,104);stroke-width:2px;"/>
                </g>
                <g transform="matrix(0.307918,0,0,0.588131,-99.4599,1445.03)">
                    <path d="M754.969,3756.68C749.057,3749.6 743.307,3740.73 739.046,3731.95C748.873,3692.85 774.85,3666.89 828.74,3648.44C836.649,3676.01 855.373,3689.8 879.347,3696.89C866.057,3745.28 842.595,3777.35 801.451,3790.35C791.643,3785.94 781.533,3780.16 773.358,3774.07" style="fill:none;stroke:rgb(10,31,64);stroke-width:2px;"/>
                </g>
                <g transform="matrix(0.307918,0,0,0.588131,-99.4599,1445.03)">
                    <path d="M768.428,3776.73C776.198,3782.45 785.128,3787.32 795.603,3792.03C795.603,3792.03 793.55,3792.65 792.512,3792.96C789.334,3793.9 786.276,3794.62 782.174,3794.83C773.587,3791.92 766.122,3787.7 759.611,3782.37" style="fill:none;stroke:rgb(10,31,64);stroke-width:2px;"/>
                </g>
                <g transform="matrix(0.307918,0,0,0.588131,-99.4599,1445.03)">
                    <path d="M747.895,3770.41C743.468,3764.68 739.015,3757.45 735.672,3750.46C735.897,3749.02 736.31,3745.82 736.748,3743.06C736.908,3742.05 737.871,3738.8 737.871,3738.8C742.058,3747.43 746.609,3754.68 751.751,3760.96" style="fill:none;stroke:rgb(10,31,64);stroke-width:2px;"/>
                </g>
                <g transform="matrix(0.307918,0,0,0.588131,-99.4599,1445.03)">
                    <path d="M890.739,3632.61C888.293,3655.6 885.516,3672.37 880.594,3690.84C880.415,3691.51 880.05,3692.85 880.05,3692.85C856.076,3685.76 840.254,3675.11 832.345,3647.54C832.345,3647.54 834.168,3646.92 835.092,3646.61C852.041,3640.99 868.071,3636.98 890.739,3632.61Z" style="fill:none;stroke:url(#_Linear1);stroke-width:2px;"/>
                </g>
                <g transform="matrix(0.307918,0,0,0.588131,-99.1584,1449.27)">
                    <circle cx="812.226" cy="3708.22" r="18.536" style="fill:none;stroke:rgb(10,31,64);stroke-width:2px;"/>
                </g>
                <g transform="matrix(0.307918,0,0,0.588131,-99.4599,1445.03)">
                    <path d="M799.374,3708.52C797.297,3714.47 798.022,3720.24 800.792,3724.33" style="fill:none;stroke:rgb(10,31,64);stroke-width:2px;"/>
                </g>
                <g transform="matrix(0.307713,-0.0214402,0.0112251,0.58774,-141.531,1464.22)">
                    <path d="M812.054,3791.5L814.775,3809.32C799.699,3812.63 788.05,3824.72 780.533,3831.16C791.743,3815.77 796.898,3804.28 796.299,3796.5C796.278,3796.22 796.21,3795.66 796.21,3795.66C802.032,3795.11 807.261,3793.83 812.054,3791.5Z" style="fill:none;stroke:rgb(242,91,104);stroke-width:2px;"/>
                </g>
                <g transform="matrix(-0.00518092,-0.588047,-0.307874,0.00989569,1298.73,4074.14)">
                    <path d="M811.843,3792L814.775,3809.32C799.699,3812.63 788.05,3824.72 780.533,3831.16C791.171,3816.56 796.356,3805.47 796.346,3797.72C796.346,3797.24 796.156,3795.9 796.156,3795.9C801.712,3795.37 806.559,3794.1 811.843,3792Z" style="fill:none;stroke:rgb(242,91,104);stroke-width:2px;"/>
                </g>
            </g>
            <g transform="matrix(0.32464,0,0,0.648829,-117.451,1189.58)">
                <g transform="matrix(72,0,0,72,327.185,3825.92)">
                    <path d="M0.55,-0.046L0.55,-0L0.104,-0L0.104,-0.66L0.154,-0.66L0.154,-0.046L0.55,-0.046Z" style="fill:rgb(10,31,64);fill-rule:nonzero;"/>
                </g>
                <g transform="matrix(72,0,0,72,365.993,3825.92)">
                    <path d="M0.295,-0.51C0.369,-0.51 0.427,-0.487 0.47,-0.441C0.512,-0.394 0.533,-0.331 0.533,-0.25C0.533,-0.169 0.512,-0.106 0.47,-0.06C0.427,-0.013 0.369,0.01 0.295,0.01C0.221,0.01 0.163,-0.013 0.121,-0.06C0.078,-0.106 0.057,-0.169 0.057,-0.25C0.057,-0.331 0.078,-0.394 0.121,-0.441C0.163,-0.487 0.221,-0.51 0.295,-0.51ZM0.295,-0.467C0.236,-0.467 0.19,-0.448 0.157,-0.409C0.124,-0.37 0.107,-0.317 0.107,-0.25C0.107,-0.183 0.124,-0.13 0.157,-0.091C0.19,-0.052 0.236,-0.033 0.295,-0.033C0.354,-0.033 0.4,-0.052 0.433,-0.091C0.466,-0.13 0.483,-0.183 0.483,-0.25C0.483,-0.317 0.466,-0.37 0.433,-0.409C0.4,-0.448 0.354,-0.467 0.295,-0.467Z" style="fill:rgb(10,31,64);fill-rule:nonzero;"/>
                </g>
                <g transform="matrix(72,0,0,72,408.473,3825.92)">
                    <path d="M0.252,0.01C0.201,0.01 0.157,0 0.12,-0.02C0.083,-0.04 0.057,-0.069 0.043,-0.107L0.084,-0.134C0.094,-0.101 0.114,-0.076 0.145,-0.059C0.176,-0.042 0.213,-0.034 0.258,-0.034C0.303,-0.034 0.339,-0.043 0.365,-0.06C0.39,-0.077 0.403,-0.1 0.403,-0.129C0.403,-0.154 0.392,-0.173 0.37,-0.188C0.348,-0.203 0.309,-0.215 0.254,-0.225C0.184,-0.238 0.135,-0.255 0.106,-0.276C0.077,-0.297 0.063,-0.328 0.063,-0.367C0.063,-0.393 0.071,-0.417 0.087,-0.439C0.103,-0.461 0.126,-0.478 0.155,-0.491C0.184,-0.504 0.218,-0.51 0.255,-0.51C0.308,-0.51 0.35,-0.5 0.382,-0.48C0.413,-0.46 0.435,-0.429 0.447,-0.388L0.404,-0.363C0.385,-0.432 0.336,-0.466 0.255,-0.466C0.228,-0.466 0.204,-0.462 0.183,-0.453C0.161,-0.444 0.144,-0.433 0.132,-0.419C0.119,-0.404 0.113,-0.389 0.113,-0.372C0.113,-0.345 0.124,-0.323 0.147,-0.308C0.17,-0.293 0.21,-0.28 0.267,-0.27C0.335,-0.259 0.383,-0.242 0.411,-0.221C0.439,-0.2 0.453,-0.17 0.453,-0.131C0.453,-0.088 0.435,-0.054 0.399,-0.029C0.362,-0.003 0.313,0.01 0.252,0.01Z" style="fill:rgb(10,31,64);fill-rule:nonzero;"/>
                </g>
                <g transform="matrix(72,0,0,72,467.369,3825.92)">
                    <path d="M0.345,-0.051C0.395,-0.051 0.434,-0.041 0.463,-0.02C0.492,0.001 0.506,0.028 0.506,0.063C0.506,0.093 0.496,0.12 0.476,0.143C0.455,0.166 0.427,0.183 0.391,0.196C0.355,0.209 0.314,0.215 0.268,0.215C0.193,0.215 0.135,0.203 0.095,0.179C0.055,0.154 0.035,0.122 0.035,0.082C0.035,0.056 0.043,0.034 0.059,0.015C0.075,-0.004 0.097,-0.017 0.125,-0.025C0.105,-0.034 0.089,-0.046 0.078,-0.061C0.066,-0.076 0.06,-0.093 0.06,-0.112C0.06,-0.136 0.068,-0.156 0.084,-0.173C0.099,-0.19 0.12,-0.202 0.147,-0.209C0.12,-0.223 0.099,-0.242 0.084,-0.266C0.069,-0.289 0.062,-0.316 0.062,-0.347C0.062,-0.396 0.081,-0.436 0.118,-0.466C0.155,-0.495 0.204,-0.51 0.265,-0.51C0.308,-0.51 0.345,-0.502 0.378,-0.487C0.382,-0.519 0.395,-0.545 0.418,-0.564C0.441,-0.583 0.469,-0.592 0.503,-0.592L0.515,-0.548C0.484,-0.548 0.459,-0.541 0.441,-0.527C0.423,-0.513 0.413,-0.493 0.41,-0.467C0.448,-0.436 0.467,-0.396 0.467,-0.347C0.467,-0.298 0.449,-0.258 0.412,-0.228C0.375,-0.198 0.326,-0.183 0.265,-0.183C0.244,-0.183 0.222,-0.185 0.197,-0.19C0.169,-0.187 0.147,-0.179 0.132,-0.166C0.116,-0.153 0.108,-0.137 0.108,-0.119C0.108,-0.098 0.117,-0.081 0.135,-0.069C0.153,-0.057 0.18,-0.051 0.216,-0.051L0.345,-0.051ZM0.112,-0.347C0.112,-0.31 0.126,-0.28 0.153,-0.258C0.18,-0.236 0.218,-0.225 0.265,-0.225C0.312,-0.225 0.349,-0.236 0.376,-0.258C0.403,-0.28 0.417,-0.31 0.417,-0.347C0.417,-0.384 0.403,-0.414 0.376,-0.436C0.349,-0.457 0.312,-0.468 0.265,-0.468C0.218,-0.468 0.181,-0.457 0.154,-0.436C0.126,-0.414 0.112,-0.384 0.112,-0.347ZM0.273,0.173C0.33,0.173 0.375,0.163 0.41,0.144C0.444,0.124 0.461,0.099 0.461,0.069C0.461,0.045 0.45,0.026 0.429,0.013C0.407,-0.001 0.375,-0.008 0.334,-0.008L0.205,-0.008C0.167,-0.008 0.137,-0 0.115,0.015C0.092,0.029 0.081,0.049 0.081,0.074C0.081,0.105 0.098,0.129 0.131,0.147C0.164,0.164 0.212,0.173 0.273,0.173Z" style="fill:rgb(10,31,64);fill-rule:nonzero;"/>
                </g>
                <g transform="matrix(72,0,0,72,504.449,3825.92)">
                    <path d="M0.505,-0.262C0.505,-0.251 0.504,-0.24 0.503,-0.229L0.106,-0.229C0.109,-0.168 0.128,-0.12 0.161,-0.086C0.194,-0.051 0.238,-0.034 0.293,-0.034C0.332,-0.034 0.366,-0.042 0.395,-0.058C0.423,-0.074 0.443,-0.097 0.456,-0.126L0.498,-0.104C0.479,-0.067 0.453,-0.039 0.418,-0.02C0.383,0 0.342,0.01 0.293,0.01C0.219,0.01 0.161,-0.013 0.12,-0.059C0.078,-0.105 0.057,-0.169 0.057,-0.25C0.057,-0.331 0.077,-0.395 0.118,-0.441C0.158,-0.487 0.214,-0.51 0.287,-0.51C0.355,-0.51 0.408,-0.487 0.447,-0.442C0.486,-0.397 0.505,-0.337 0.505,-0.262ZM0.287,-0.466C0.233,-0.466 0.19,-0.449 0.159,-0.416C0.128,-0.382 0.11,-0.335 0.106,-0.274L0.458,-0.274C0.455,-0.334 0.438,-0.381 0.409,-0.415C0.379,-0.449 0.338,-0.466 0.287,-0.466Z" style="fill:rgb(10,31,64);fill-rule:nonzero;"/>
                </g>
                <g transform="matrix(72,0,0,72,544.697,3825.92)">
                    <path d="M0.323,-0.51C0.38,-0.51 0.427,-0.494 0.462,-0.462C0.497,-0.43 0.514,-0.384 0.514,-0.325L0.514,-0L0.464,-0L0.464,-0.309C0.464,-0.362 0.451,-0.401 0.425,-0.428C0.398,-0.454 0.363,-0.467 0.318,-0.467C0.286,-0.467 0.256,-0.46 0.229,-0.445C0.202,-0.43 0.18,-0.408 0.164,-0.38C0.147,-0.352 0.139,-0.319 0.139,-0.282L0.139,-0L0.089,-0L0.089,-0.73L0.139,-0.73L0.139,-0.401C0.155,-0.436 0.179,-0.463 0.212,-0.482C0.244,-0.501 0.281,-0.51 0.323,-0.51Z" style="fill:rgb(10,31,64);fill-rule:nonzero;"/>
                </g>
                <g transform="matrix(72,0,0,72,586.817,3825.92)">
                    <path d="M0.365,-0.032C0.352,-0.019 0.335,-0.008 0.316,-0.001C0.297,0.006 0.275,0.01 0.252,0.01C0.211,0.01 0.18,-0.001 0.157,-0.024C0.133,-0.046 0.122,-0.08 0.122,-0.125L0.122,-0.457L0.022,-0.457L0.022,-0.5L0.122,-0.5L0.122,-0.625L0.172,-0.639L0.172,-0.5L0.36,-0.5L0.36,-0.457L0.172,-0.457L0.172,-0.132C0.172,-0.101 0.18,-0.077 0.195,-0.061C0.21,-0.044 0.231,-0.036 0.26,-0.036C0.293,-0.036 0.322,-0.048 0.347,-0.073L0.365,-0.032Z" style="fill:rgb(10,31,64);fill-rule:nonzero;"/>
                </g>
                <g transform="matrix(72,0,0,72,613.961,3825.92)">
                    <path d="M0.115,-0.48L0.075,-0.48L0.075,-0.685L0.129,-0.685L0.115,-0.48Z" style="fill:rgb(10,31,64);fill-rule:nonzero;"/>
                </g>
                <g transform="matrix(72,0,0,72,626.561,3825.92)">
                    <path d="M0.252,0.01C0.201,0.01 0.157,0 0.12,-0.02C0.083,-0.04 0.057,-0.069 0.043,-0.107L0.084,-0.134C0.094,-0.101 0.114,-0.076 0.145,-0.059C0.176,-0.042 0.213,-0.034 0.258,-0.034C0.303,-0.034 0.339,-0.043 0.365,-0.06C0.39,-0.077 0.403,-0.1 0.403,-0.129C0.403,-0.154 0.392,-0.173 0.37,-0.188C0.348,-0.203 0.309,-0.215 0.254,-0.225C0.184,-0.238 0.135,-0.255 0.106,-0.276C0.077,-0.297 0.063,-0.328 0.063,-0.367C0.063,-0.393 0.071,-0.417 0.087,-0.439C0.103,-0.461 0.126,-0.478 0.155,-0.491C0.184,-0.504 0.218,-0.51 0.255,-0.51C0.308,-0.51 0.35,-0.5 0.382,-0.48C0.413,-0.46 0.435,-0.429 0.447,-0.388L0.404,-0.363C0.385,-0.432 0.336,-0.466 0.255,-0.466C0.228,-0.466 0.204,-0.462 0.183,-0.453C0.161,-0.444 0.144,-0.433 0.132,-0.419C0.119,-0.404 0.113,-0.389 0.113,-0.372C0.113,-0.345 0.124,-0.323 0.147,-0.308C0.17,-0.293 0.21,-0.28 0.267,-0.27C0.335,-0.259 0.383,-0.242 0.411,-0.221C0.439,-0.2 0.453,-0.17 0.453,-0.131C0.453,-0.088 0.435,-0.054 0.399,-0.029C0.362,-0.003 0.313,0.01 0.252,0.01Z" style="fill:rgb(10,31,64);fill-rule:nonzero;"/>
                </g>
            </g>
            <g transform="matrix(0.311143,-0.220301,0.110216,0.621794,-146.097,3532.83)">
                <g transform="matrix(0.319969,0,0,0.32,-30.1618,16.8868)">
                    <path d="M817.9,316.715C821.465,335.513 831.725,346.851 850.209,349.025C832.114,351.992 819.967,361.295 817.9,381.334C816.653,363.252 806.243,352.205 785.591,349.025C802.419,346.201 813.714,336.119 817.9,316.715Z" style="fill:none;stroke:url(#_Linear2);stroke-width:6.15px;"/>
                </g>
                <g transform="matrix(0.423126,0,0,0.423168,-144.621,59.1848)">
                    <circle cx="981.69" cy="333.643" r="16.155" style="fill:none;stroke:url(#_Linear3);stroke-width:4.65px;"/>
                </g>
                <g transform="matrix(0.304434,0.098497,-0.0984873,0.304464,92.2419,-67.7466)">
                    <path d="M678.708,326.28C675.48,298.096 660.55,284.737 638.18,280.804" style="fill:none;stroke:url(#_Linear4);stroke-width:6.15px;"/>
                </g>
                <g transform="matrix(0.423126,0,0,0.423168,-234.157,63.642)">
                    <circle cx="981.69" cy="333.643" r="16.155" style="fill:none;stroke:url(#_Linear5);stroke-width:4.65px;"/>
                </g>
                <g transform="matrix(0.225207,0.227314,-0.227292,0.22523,35.6601,-1.17909)">
                    <path d="M678.708,326.28C675.48,298.096 660.55,284.737 638.18,280.804" style="fill:none;stroke:url(#_Linear6);stroke-width:6.15px;"/>
                </g>
                <g transform="matrix(0.310615,-0.0768078,0.0768002,0.310645,-32.2293,237.719)">
                    <path d="M817.9,316.715C821.465,335.513 831.725,346.851 850.209,349.025C832.114,351.992 819.967,361.295 817.9,381.334C816.653,363.252 806.243,352.205 785.591,349.025C802.419,346.201 813.714,336.119 817.9,316.715Z" style="fill:none;stroke:url(#_Linear7);stroke-width:6.15px;"/>
                </g>
            </g>
            <g transform="matrix(0.105579,-0.00582225,0.00291315,0.211011,93.9873,3688.92)">
                <path d="M678.708,326.28C675.48,298.096 660.55,284.737 638.18,280.804" style="fill:none;stroke:url(#_Linear8);stroke-width:6.15px;"/>
            </g>
            <g transform="matrix(0.0881803,-0.116187,0.058134,0.176238,74.8254,3743.48)">
                <path d="M817.9,316.715C821.465,335.513 831.725,346.851 850.209,349.025C832.114,351.992 819.967,361.295 817.9,381.334C816.653,363.252 806.243,352.205 785.591,349.025C802.419,346.201 813.714,336.119 817.9,316.715Z" style="fill:none;stroke:url(#_Linear9);stroke-width:6.15px;"/>
            </g>
            <g transform="matrix(0.131653,-0.0932151,0.0466399,0.263123,-5.10403,3718.19)">
                <circle cx="981.69" cy="333.643" r="16.155" style="fill:none;stroke:url(#_Linear10);stroke-width:4.65px;"/>
            </g>
        </g>
    </g>
    <defs>
        <linearGradient id="_Linear1" x1="0" y1="0" x2="1" y2="0" gradientUnits="userSpaceOnUse" gradientTransform="matrix(58.3944,0,0,60.2431,832.345,3662.73)"><stop offset="0" style="stop-color:rgb(166,212,146);stop-opacity:1"/><stop offset="1" style="stop-color:rgb(84,182,181);stop-opacity:1"/></linearGradient>
        <linearGradient id="_Linear2" x1="0" y1="0" x2="1" y2="0" gradientUnits="userSpaceOnUse" gradientTransform="matrix(415.316,0,0,184.96,582.529,288.853)"><stop offset="0" style="stop-color:rgb(166,212,146);stop-opacity:1"/><stop offset="1" style="stop-color:rgb(84,182,181);stop-opacity:1"/></linearGradient>
        <linearGradient id="_Linear3" x1="0" y1="0" x2="1" y2="0" gradientUnits="userSpaceOnUse" gradientTransform="matrix(415.316,0,0,184.96,582.529,288.853)"><stop offset="0" style="stop-color:rgb(166,212,146);stop-opacity:1"/><stop offset="1" style="stop-color:rgb(84,182,181);stop-opacity:1"/></linearGradient>
        <linearGradient id="_Linear4" x1="0" y1="0" x2="1" y2="0" gradientUnits="userSpaceOnUse" gradientTransform="matrix(415.316,0,0,184.96,582.529,288.853)"><stop offset="0" style="stop-color:rgb(166,212,146);stop-opacity:1"/><stop offset="1" style="stop-color:rgb(84,182,181);stop-opacity:1"/></linearGradient>
        <linearGradient id="_Linear5" x1="0" y1="0" x2="1" y2="0" gradientUnits="userSpaceOnUse" gradientTransform="matrix(415.316,0,0,184.96,582.529,288.853)"><stop offset="0" style="stop-color:rgb(166,212,146);stop-opacity:1"/><stop offset="1" style="stop-color:rgb(84,182,181);stop-opacity:1"/></linearGradient>
        <linearGradient id="_Linear6" x1="0" y1="0" x2="1" y2="0" gradientUnits="userSpaceOnUse" gradientTransform="matrix(415.316,0,0,184.96,582.529,288.853)"><stop offset="0" style="stop-color:rgb(166,212,146);stop-opacity:1"/><stop offset="1" style="stop-color:rgb(84,182,181);stop-opacity:1"/></linearGradient>
        <linearGradient id="_Linear7" x1="0" y1="0" x2="1" y2="0" gradientUnits="userSpaceOnUse" gradientTransform="matrix(415.316,0,0,184.96,582.529,288.853)"><stop offset="0" style="stop-color:rgb(166,212,146);stop-opacity:1"/><stop offset="1" style="stop-color:rgb(84,182,181);stop-opacity:1"/></linearGradient>
        <linearGradient id="_Linear8" x1="0" y1="0" x2="1" y2="0" gradientUnits="userSpaceOnUse" gradientTransform="matrix(415.316,0,0,184.96,582.529,288.853)"><stop offset="0" style="stop-color:rgb(166,212,146);stop-opacity:1"/><stop offset="1" style="stop-color:rgb(84,182,181);stop-opacity:1"/></linearGradient>
        <linearGradient id="_Linear9" x1="0" y1="0" x2="1" y2="0" gradientUnits="userSpaceOnUse" gradientTransform="matrix(415.316,0,0,184.96,582.529,288.853)"><stop offset="0" style="stop-color:rgb(166,212,146);stop-opacity:1"/><stop offset="1" style="stop-color:rgb(84,182,181);stop-opacity:1"/></linearGradient>
        <linearGradient id="_Linear10" x1="0" y1="0" x2="1" y2="0" gradientUnits="userSpaceOnUse" gradientTransform="matrix(415.316,0,0,184.96,582.529,288.853)"><stop offset="0" style="stop-color:rgb(166,212,146);stop-opacity:1"/><stop offset="1" style="stop-color:rgb(84,182,181);stop-opacity:1"/></linearGradient>
    </defs>
</svg>
